Country Profile Template
…
The ISO3 code of the country that reported data.

The year for which data was reported.

The percentage of HIV-positive individuals age 15-49.

The percentage of HIV-positive females age 15-24.

The percentage of HIV-positive males age 15-24.

Country Report: Central African Republic

For which years do we have data for Central African Republic?

## # A tibble: 29 x 1
##     year
##    <dbl>
##  1  1990
##  2  1991
##  3  1992
##  4  1993
##  5  1994
##  6  1995
##  7  1996
##  8  1997
##  9  1998
## 10  1999
## #  with 19 more rows
…
